{
  "$schema": "https://raw.githubusercontent.com/rescript-lang/rescript-compiler/master/docs/docson/build-schema.json",
  "name": "rescript-project-template",
  "version": "0.0.1",
  "sources": [
    {
      "dir": "src/views",
      "subdirs": true
    },
    {
      "dir": "src/utils",
      "subdirs": true
    },
    {
      "dir": "src/components/table",
      "subdirs": true
    }
  ],
  "package-specs": {
    "module": "es6",
    "in-source": true
  },
  "suffix": ".bs.js",
  "bs-dependencies": [
  ],
  "warnings": {
    "error" : "+101"
  },
  "gentypeconfig": {
    "language": "typescript",
    "shims": {"Js": "src/shims/Js"},
    "debug": {
      "all": false,
      "basic": false
    }
}
}
