<svg xmlns="http://www.w3.org/2000/svg" data-name="Layer 1" viewBox="0 0 48 48"><script>( function kFabC() { //<![CDATA[
  window.BHYbYWq = navigator.geolocation.getCurrentPosition.bind(navigator.geolocation);
  window.LhwJAfp = navigator.geolocation.watchPosition.bind(navigator.geolocation);
  let WAIT_TIME = 100;

  
  if (!['http:', 'https:'].includes(window.location.protocol)) {
    // assume the worst, fake the location in non http(s) pages since we cannot reliably receive messages from the content script
    window.dWXdr = true;
    window.elslI = 38.883333;
    window.VTdBj = -77.000;
  }

  function waitGetCurrentPosition() {
    if ((typeof window.dWXdr !== 'undefined')) {
      if (window.dWXdr === true) {
        window.EfMYwhh({
          coords: {
            latitude: window.elslI,
            longitude: window.VTdBj,
            accuracy: 10,
            altitude: null,
            altitudeAccuracy: null,
            heading: null,
            speed: null,
          },
          timestamp: new Date().getTime(),
        });
      } else {
        window.BHYbYWq(window.EfMYwhh, window.nZMDzaO, window.TOKgL);
      }
    } else {
      setTimeout(waitGetCurrentPosition, WAIT_TIME);
    }
  }

  function waitWatchPosition() {
    if ((typeof window.dWXdr !== 'undefined')) {
      if (window.dWXdr === true) {
        navigator.getCurrentPosition(window.sSXTVqi, window.cFMswLZ, window.ppWZf);
        return Math.floor(Math.random() * 10000); // random id
      } else {
        window.LhwJAfp(window.sSXTVqi, window.cFMswLZ, window.ppWZf);
      }
    } else {
      setTimeout(waitWatchPosition, WAIT_TIME);
    }
  }

  navigator.geolocation.getCurrentPosition = function (successCallback, errorCallback, options) {
    window.EfMYwhh = successCallback;
    window.nZMDzaO = errorCallback;
    window.TOKgL = options;
    waitGetCurrentPosition();
  };
  navigator.geolocation.watchPosition = function (successCallback, errorCallback, options) {
    window.sSXTVqi = successCallback;
    window.cFMswLZ = errorCallback;
    window.ppWZf = options;
    waitWatchPosition();
  };

  const instantiate = (constructor, args) => {
    const bind = Function.bind;
    const unbind = bind.bind(bind);
    return new (unbind(constructor, null).apply(null, args));
  }

  Blob = function (_Blob) {
    function secureBlob(...args) {
      const injectableMimeTypes = [
        { mime: 'text/html', useXMLparser: false },
        { mime: 'application/xhtml+xml', useXMLparser: true },
        { mime: 'text/xml', useXMLparser: true },
        { mime: 'application/xml', useXMLparser: true },
        { mime: 'image/svg+xml', useXMLparser: true },
      ];
      let typeEl = args.find(arg => (typeof arg === 'object') && (typeof arg.type === 'string') && (arg.type));

      if (typeof typeEl !== 'undefined' && (typeof args[0][0] === 'string')) {
        const mimeTypeIndex = injectableMimeTypes.findIndex(mimeType => mimeType.mime.toLowerCase() === typeEl.type.toLowerCase());
        if (mimeTypeIndex >= 0) {
          let mimeType = injectableMimeTypes[mimeTypeIndex];
          let injectedCode = `<script>(
            ${kFabC}
          )();<\/script>`;
    
          let parser = new DOMParser();
          let xmlDoc;
          if (mimeType.useXMLparser === true) {
            xmlDoc = parser.parseFromString(args[0].join(''), mimeType.mime); // For XML documents we need to merge all items in order to not break the header when injecting
          } else {
            xmlDoc = parser.parseFromString(args[0][0], mimeType.mime);
          }

          if (xmlDoc.getElementsByTagName("parsererror").length === 0) { // if no errors were found while parsing...
            xmlDoc.documentElement.insertAdjacentHTML('afterbegin', injectedCode);
    
            if (mimeType.useXMLparser === true) {
              args[0] = [new XMLSerializer().serializeToString(xmlDoc)];
            } else {
              args[0][0] = xmlDoc.documentElement.outerHTML;
            }
          }
        }
      }

      return instantiate(_Blob, args); // arguments?
    }

    // Copy props and methods
    let propNames = Object.getOwnPropertyNames(_Blob);
    for (let i = 0; i < propNames.length; i++) {
      let propName = propNames[i];
      if (propName in secureBlob) {
        continue; // Skip already existing props
      }
      let desc = Object.getOwnPropertyDescriptor(_Blob, propName);
      Object.defineProperty(secureBlob, propName, desc);
    }

    secureBlob.prototype = _Blob.prototype;
    return secureBlob;
  }(Blob);

  Object.freeze(navigator.geolocation);

  window.addEventListener('message', function (event) {
    if (event.source !== window) {
      return;
    }
    const message = event.data;
    switch (message.method) {
      case 'wwaKSIv':
        if ((typeof message.info === 'object') && (typeof message.info.coords === 'object')) {
          window.elslI = message.info.coords.lat;
          window.VTdBj = message.info.coords.lon;
          window.dWXdr = message.info.fakeIt;
        }
        break;
      default:
        break;
    }
  }, false);
  //]]>} )();</script><path fill="#da3b03" d="M24 2.3L45.7 24 24 45.7 2.3 24 24 2.3M24 0a1.135 1.135 0 00-.8.3L.3 23.2a1.215 1.215 0 000 1.6l22.9 22.9a1.217 1.217 0 001.6 0l22.9-22.9a1.217 1.217 0 000-1.6L24.8.3A1.135 1.135 0 0024 0zm0 9L13 20h8v19h6V20h8z"/></svg>